$date
	Fri May  5 15:14:36 2017
$end
$version
	Icarus Verilog
$end
$timescale
	1ns
$end
$scope module tb $end
$var reg 1 ! clk $end
$var reg 1 " rst $end
$var integer 32 # db [31:0] $end
$var integer 32 $ i [31:0] $end
$var integer 32 % rs [31:0] $end
$var integer 32 & tmp [31:0] $end
$scope module mc $end
$var wire 1 ! clk $end
$var wire 1 " rst $end
$var wire 16 ' mem_out [15:0] $end
$var wire 1 ( mem_ld $end
$var wire 16 ) mem_in [15:0] $end
$var wire 13 * mem_addr [12:0] $end
$scope module dm $end
$var wire 1 ! clk $end
$var wire 16 + read_data [15:0] $end
$var wire 1 ( write_en $end
$var wire 16 , write_data [15:0] $end
$var wire 13 - address [12:0] $end
$upscope $end
$scope module mp $end
$var wire 1 ! clk $end
$var wire 16 . mem_out [15:0] $end
$var wire 1 " rst $end
$var wire 1 / reg_sel $end
$var wire 1 0 reg_ld $end
$var wire 1 1 pc_sel $end
$var wire 1 2 pc_ld_prim $end
$var wire 1 3 pc_ld_cond $end
$var wire 3 4 opcode [2:0] $end
$var wire 1 5 mem_sel $end
$var wire 1 ( mem_ld $end
$var wire 16 6 mem_in [15:0] $end
$var wire 13 7 mem_addr [12:0] $end
$var wire 1 8 ir_ld $end
$var wire 2 9 alu_sel [1:0] $end
$var wire 2 : alu_b_sel [1:0] $end
$var wire 1 ; alu_a_sel $end
$scope module ctrl $end
$var wire 1 ! clk $end
$var wire 1 " rst $end
$var wire 3 < opcode [2:0] $end
$var reg 1 ; alu_a_sel $end
$var reg 2 = alu_b_sel [1:0] $end
$var reg 2 > alu_sel [1:0] $end
$var reg 1 8 ir_ld $end
$var reg 1 ( mem_ld $end
$var reg 1 5 mem_sel $end
$var reg 3 ? ns [2:0] $end
$var reg 1 3 pc_ld_cond $end
$var reg 1 2 pc_ld_prim $end
$var reg 1 1 pc_sel $end
$var reg 3 @ ps [2:0] $end
$var reg 1 0 reg_ld $end
$var reg 1 / reg_sel $end
$upscope $end
$scope module dp $end
$var wire 1 ; alu_a_sel $end
$var wire 2 A alu_b_sel [1:0] $end
$var wire 2 B alu_sel [1:0] $end
$var wire 1 ! clk $end
$var wire 1 8 ir_ld $end
$var wire 16 C mem_in [15:0] $end
$var wire 16 D mem_out [15:0] $end
$var wire 1 5 mem_sel $end
$var wire 1 E pc_ld $end
$var wire 1 3 pc_ld_cond $end
$var wire 1 2 pc_ld_prim $end
$var wire 1 1 pc_sel $end
$var wire 1 0 reg_ld $end
$var wire 1 / reg_sel $end
$var wire 1 " rst $end
$var wire 1 F zero $end
$var wire 16 G reg_out [15:0] $end
$var wire 16 H reg_in [15:0] $end
$var wire 16 I pc_out [15:0] $end
$var wire 16 J pc_in [15:0] $end
$var wire 3 K opcode [2:0] $end
$var wire 13 L mem_addr [12:0] $end
$var wire 16 M mdr_out [15:0] $end
$var wire 16 N ir_out [15:0] $end
$var wire 16 O alu_out [15:0] $end
$var wire 16 P alu_b [15:0] $end
$var wire 16 Q alu_a [15:0] $end
$scope module acc $end
$var wire 1 ! clk $end
$var wire 1 0 ld $end
$var wire 16 R parin [15:0] $end
$var wire 1 " rst $end
$var reg 16 S w [15:0] $end
$upscope $end
$scope module ir $end
$var wire 1 ! clk $end
$var wire 1 8 ld $end
$var wire 16 T parin [15:0] $end
$var wire 1 " rst $end
$var reg 16 U w [15:0] $end
$upscope $end
$scope module mdr $end
$var wire 1 ! clk $end
$var wire 1 V ld $end
$var wire 16 W parin [15:0] $end
$var wire 1 " rst $end
$var reg 16 X w [15:0] $end
$upscope $end
$scope module pc $end
$var wire 1 ! clk $end
$var wire 1 E ld $end
$var wire 16 Y parin [15:0] $end
$var wire 1 " rst $end
$var reg 16 Z w [15:0] $end
$upscope $end
$scope module tree $end
$var wire 16 [ a [15:0] $end
$var wire 16 \ b [15:0] $end
$var wire 2 ] operation [1:0] $end
$var wire 1 F zero $end
$var reg 16 ^ c [15:0] $end
$upscope $end
$upscope $end
$upscope $end
$upscope $end
$upscope $end
$enddefinitions $end
#0
$dumpvars
bx ^
bx ]
bx \
bx [
bx Z
bx Y
bx X
bx W
1V
bx U
bx T
bx S
bx R
bx Q
bx P
bx O
bx N
bx M
bx L
bx K
bx J
bx I
bx H
bx G
xF
xE
bx D
bx C
bx B
bx A
bx @
bx ?
bx >
bx =
bx <
x;
bx :
bx 9
x8
bx 7
bx 6
x5
bx 4
x3
x2
x1
x0
x/
bx .
bx -
bx ,
bx +
bx *
bx )
x(
bx '
bx &
b1 %
b1101110 $
b10000000000000000000000000000011 #
1"
0!
$end
#50
0F
b1 J
b1 Y
b1 H
b1 R
b1 O
b1 ^
1E
0;
0/
05
01
00
18
12
03
0(
b0 9
b0 >
b0 B
b0 ]
b1 :
b1 =
b1 A
b1 ?
b0 @
b1100100 '
b1100100 +
b1100100 .
b1100100 D
b1100100 T
b1100100 W
b0 *
b0 -
b0 7
b0 L
b0 4
b0 <
b0 K
b1 P
b1 \
b0 Q
b0 [
b0 I
b0 Z
b0 N
b0 U
b0 M
b0 X
b0 )
b0 ,
b0 6
b0 C
b0 G
b0 S
1!
#60
0"
#100
0!
#150
b0 P
b0 \
0E
15
08
02
b0 :
b0 =
b0 A
b11 ?
b1 @
b1 J
b1 Y
b1 H
b1 R
b1 '
b1 +
b1 .
b1 D
b1 T
b1 W
b1100100 *
b1100100 -
b1100100 7
b1100100 L
b1 O
b1 ^
b1 Q
b1 [
b1100100 M
b1100100 X
b1100100 N
b1100100 U
b1 I
b1 Z
1!
#200
0!
#250
b1 P
b1 \
b0 Q
b0 [
b1100101 '
b1100101 +
b1100101 .
b1100101 D
b1100101 T
b1100101 W
b1 *
b1 -
b1 7
b1 L
1;
05
10
b10 :
b10 =
b10 A
b0 ?
b11 @
b1 M
b1 X
1!
#300
0!
#350
1E
0;
00
18
12
b1 :
b1 =
b1 A
b1 ?
b0 @
b10 J
b10 Y
b10 H
b10 R
b10 O
b10 ^
b1 Q
b1 [
b1 P
b1 \
b1 )
b1 ,
b1 6
b1 C
b1 G
b1 S
b1100101 M
b1100101 X
1!
#400
0!
#450
b0 P
b0 \
0E
15
08
02
b0 :
b0 =
b0 A
b11 ?
b1 @
b10 J
b10 Y
b10 H
b10 R
b10 '
b10 +
b10 .
b10 D
b10 T
b10 W
b1100101 *
b1100101 -
b1100101 7
b1100101 L
b10 O
b10 ^
b10 Q
b10 [
b10 I
b10 Z
b1100101 N
b1100101 U
1!
#500
0!
#550
b11 J
b11 Y
b11 H
b11 R
b11 O
b11 ^
b10 P
b10 \
b1 Q
b1 [
b1100110 '
b1100110 +
b1100110 .
b1100110 D
b1100110 T
b1100110 W
b10 *
b10 -
b10 7
b10 L
1;
05
10
b10 :
b10 =
b10 A
b0 ?
b11 @
b10 M
b10 X
1!
#600
0!
#650
1E
0;
00
18
12
b1 :
b1 =
b1 A
b1 ?
b0 @
b11 J
b11 Y
b11 H
b11 R
b11 O
b11 ^
b1 P
b1 \
b10 Q
b10 [
b1100110 M
b1100110 X
b11 )
b11 ,
b11 6
b11 C
b11 G
b11 S
1!
#700
0!
#750
b0 P
b0 \
0E
15
08
02
b0 :
b0 =
b0 A
b11 ?
b1 @
b11 J
b11 Y
b11 H
b11 R
b10 '
b10 +
b10 .
b10 D
b10 T
b10 W
b1100110 *
b1100110 -
b1100110 7
b1100110 L
b11 O
b11 ^
b11 Q
b11 [
b1100110 N
b1100110 U
b11 I
b11 Z
1!
#800
0!
#850
b101 J
b101 Y
b101 H
b101 R
b101 O
b101 ^
b10 P
b10 \
b1100111 '
b1100111 +
b1100111 .
b1100111 D
b1100111 T
b1100111 W
b11 *
b11 -
b11 7
b11 L
1;
05
10
b10 :
b10 =
b10 A
b0 ?
b11 @
b10 M
b10 X
1!
#900
0!
#950
1E
0;
00
18
12
b1 :
b1 =
b1 A
b1 ?
b0 @
b100 J
b100 Y
b100 H
b100 R
b100 O
b100 ^
b11 Q
b11 [
b1 P
b1 \
b101 )
b101 ,
b101 6
b101 C
b101 G
b101 S
b1100111 M
b1100111 X
1!
#1000
0!
#1050
b0 P
b0 \
0E
15
08
02
b0 :
b0 =
b0 A
b11 ?
b1 @
b100 J
b100 Y
b100 H
b100 R
b10 '
b10 +
b10 .
b10 D
b10 T
b10 W
b1100111 *
b1100111 -
b1100111 7
b1100111 L
b100 O
b100 ^
b100 Q
b100 [
b100 I
b100 Z
b1100111 N
b1100111 U
1!
#1100
0!
#1150
b111 J
b111 Y
b111 H
b111 R
b111 O
b111 ^
b10 P
b10 \
b101 Q
b101 [
b1101000 '
b1101000 +
b1101000 .
b1101000 D
b1101000 T
b1101000 W
b100 *
b100 -
b100 7
b100 L
1;
05
10
b10 :
b10 =
b10 A
b0 ?
b11 @
b10 M
b10 X
1!
#1200
0!
#1250
1E
0;
00
18
12
b1 :
b1 =
b1 A
b1 ?
b0 @
b101 J
b101 Y
b101 H
b101 R
b101 O
b101 ^
b1 P
b1 \
b100 Q
b100 [
b1101000 M
b1101000 X
b111 )
b111 ,
b111 6
b111 C
b111 G
b111 S
1!
#1300
0!
#1350
b0 P
b0 \
0E
15
08
02
b0 :
b0 =
b0 A
b11 ?
b1 @
b101 J
b101 Y
b101 H
b101 R
b100 '
b100 +
b100 .
b100 D
b100 T
b100 W
b1101000 *
b1101000 -
b1101000 7
b1101000 L
b101 O
b101 ^
b101 Q
b101 [
b1101000 N
b1101000 U
b101 I
b101 Z
1!
#1400
0!
#1450
b1011 J
b1011 Y
b1011 H
b1011 R
b1011 O
b1011 ^
b100 P
b100 \
b111 Q
b111 [
b1101001 '
b1101001 +
b1101001 .
b1101001 D
b1101001 T
b1101001 W
b101 *
b101 -
b101 7
b101 L
1;
05
10
b10 :
b10 =
b10 A
b0 ?
b11 @
b100 M
b100 X
1!
#1500
0!
#1550
1E
0;
00
18
12
b1 :
b1 =
b1 A
b1 ?
b0 @
b110 J
b110 Y
b110 H
b110 R
b110 O
b110 ^
b101 Q
b101 [
b1 P
b1 \
b1011 )
b1011 ,
b1011 6
b1011 C
b1011 G
b1011 S
b1101001 M
b1101001 X
1!
#1600
0!
#1650
b0 P
b0 \
0E
15
08
02
b0 :
b0 =
b0 A
b11 ?
b1 @
b110 J
b110 Y
b110 H
b110 R
b101 '
b101 +
b101 .
b101 D
b101 T
b101 W
b1101001 *
b1101001 -
b1101001 7
b1101001 L
b110 O
b110 ^
b110 Q
b110 [
b110 I
b110 Z
b1101001 N
b1101001 U
1!
#1700
0!
#1750
b10000 J
b10000 Y
b10000 H
b10000 R
b10000 O
b10000 ^
b101 P
b101 \
b1011 Q
b1011 [
b1101010 '
b1101010 +
b1101010 .
b1101010 D
b1101010 T
b1101010 W
b110 *
b110 -
b110 7
b110 L
1;
05
10
b10 :
b10 =
b10 A
b0 ?
b11 @
b101 M
b101 X
1!
#1800
0!
#1850
1E
0;
00
18
12
b1 :
b1 =
b1 A
b1 ?
b0 @
b111 J
b111 Y
b111 H
b111 R
b111 O
b111 ^
b1 P
b1 \
b110 Q
b110 [
b1101010 M
b1101010 X
b10000 )
b10000 ,
b10000 6
b10000 C
b10000 G
b10000 S
1!
#1900
0!
#1950
b0 P
b0 \
0E
15
08
02
b0 :
b0 =
b0 A
b11 ?
b1 @
b111 J
b111 Y
b111 H
b111 R
b1000 '
b1000 +
b1000 .
b1000 D
b1000 T
b1000 W
b1101010 *
b1101010 -
b1101010 7
b1101010 L
b111 O
b111 ^
b111 Q
b111 [
b1101010 N
b1101010 U
b111 I
b111 Z
1!
#2000
0!
#2050
b11000 J
b11000 Y
b11000 H
b11000 R
b11000 O
b11000 ^
b1000 P
b1000 \
b10000 Q
b10000 [
b1101011 '
b1101011 +
b1101011 .
b1101011 D
b1101011 T
b1101011 W
b111 *
b111 -
b111 7
b111 L
1;
05
10
b10 :
b10 =
b10 A
b0 ?
b11 @
b1000 M
b1000 X
1!
#2100
0!
#2150
1E
0;
00
18
12
b1 :
b1 =
b1 A
b1 ?
b0 @
b1000 J
b1000 Y
b1000 H
b1000 R
b1000 O
b1000 ^
b111 Q
b111 [
b1 P
b1 \
b11000 )
b11000 ,
b11000 6
b11000 C
b11000 G
b11000 S
b1101011 M
b1101011 X
1!
#2200
0!
#2250
b0 P
b0 \
0E
15
08
02
b0 :
b0 =
b0 A
b11 ?
b1 @
b1000 J
b1000 Y
b1000 H
b1000 R
b10010 '
b10010 +
b10010 .
b10010 D
b10010 T
b10010 W
b1101011 *
b1101011 -
b1101011 7
b1101011 L
b1000 O
b1000 ^
b1000 Q
b1000 [
b1000 I
b1000 Z
b1101011 N
b1101011 U
1!
#2300
0!
#2350
b101010 J
b101010 Y
b101010 H
b101010 R
b101010 O
b101010 ^
b10010 P
b10010 \
b11000 Q
b11000 [
b1101100 '
b1101100 +
b1101100 .
b1101100 D
b1101100 T
b1101100 W
b1000 *
b1000 -
b1000 7
b1000 L
1;
05
10
b10 :
b10 =
b10 A
b0 ?
b11 @
b10010 M
b10010 X
1!
#2400
0!
#2450
1E
0;
00
18
12
b1 :
b1 =
b1 A
b1 ?
b0 @
b1001 J
b1001 Y
b1001 H
b1001 R
b1001 O
b1001 ^
b1 P
b1 \
b1000 Q
b1000 [
b1101100 M
b1101100 X
b101010 )
b101010 ,
b101010 6
b101010 C
b101010 G
b101010 S
1!
#2500
0!
#2550
b0 P
b0 \
0E
15
08
02
b0 :
b0 =
b0 A
b11 ?
b1 @
b1001 J
b1001 Y
b1001 H
b1001 R
b100000 '
b100000 +
b100000 .
b100000 D
b100000 T
b100000 W
b1101100 *
b1101100 -
b1101100 7
b1101100 L
b1001 O
b1001 ^
b1001 Q
b1001 [
b1101100 N
b1101100 U
b1001 I
b1001 Z
1!
#2600
0!
#2650
b1001010 J
b1001010 Y
b1001010 H
b1001010 R
b1001010 O
b1001010 ^
b100000 P
b100000 \
b101010 Q
b101010 [
b1101101 '
b1101101 +
b1101101 .
b1101101 D
b1101101 T
b1101101 W
b1001 *
b1001 -
b1001 7
b1001 L
1;
05
10
b10 :
b10 =
b10 A
b0 ?
b11 @
b100000 M
b100000 X
1!
#2700
0!
#2750
1E
0;
00
18
12
b1 :
b1 =
b1 A
b1 ?
b0 @
b1010 J
b1010 Y
b1010 H
b1010 R
b1010 O
b1010 ^
b1001 Q
b1001 [
b1 P
b1 \
b1001010 )
b1001010 ,
b1001010 6
b1001010 C
b1001010 G
b1001010 S
b1101101 M
b1101101 X
1!
#2800
0!
#2850
b0 P
b0 \
0E
15
08
02
b0 :
b0 =
b0 A
b11 ?
b1 @
b1010 J
b1010 Y
b1010 H
b1010 R
b10 '
b10 +
b10 .
b10 D
b10 T
b10 W
b1101101 *
b1101101 -
b1101101 7
b1101101 L
b1010 O
b1010 ^
b1010 Q
b1010 [
b1010 I
b1010 Z
b1101101 N
b1101101 U
1!
#2900
0!
#2950
b1001100 J
b1001100 Y
b1001100 H
b1001100 R
b1001100 O
b1001100 ^
b10 P
b10 \
b1001010 Q
b1001010 [
b1100000001100100 '
b1100000001100100 +
b1100000001100100 .
b1100000001100100 D
b1100000001100100 T
b1100000001100100 W
b1010 *
b1010 -
b1010 7
b1010 L
1;
05
10
b10 :
b10 =
b10 A
b0 ?
b11 @
b10 M
b10 X
1!
#3000
0!
#3050
1E
0;
00
18
12
b1 :
b1 =
b1 A
b1 ?
b0 @
b1011 J
b1011 Y
b1011 H
b1011 R
b1011 O
b1011 ^
b1 P
b1 \
b1010 Q
b1010 [
b1100000001100100 M
b1100000001100100 X
b1001100 )
b1001100 ,
b1001100 6
b1001100 C
b1001100 G
b1001100 S
1!
#3100
0!
#3150
b0 P
b0 \
0E
15
08
02
b0 :
b0 =
b0 A
b10 ?
b1 @
b1011 J
b1011 Y
b1011 H
b1011 R
b1 '
b1 +
b1 .
b1 D
b1 T
b1 W
b1100100 *
b1100100 -
b1100100 7
b1100100 L
b1011 O
b1011 ^
b110 4
b110 <
b110 K
b1011 Q
b1011 [
b1100000001100100 N
b1100000001100100 U
b1011 I
b1011 Z
1!
#3200
0!
#3250
b1001100 H
b1001100 R
b1001100 O
b1001100 ^
b1001100 Q
b1001100 [
b0 '
b0 +
b0 .
b0 D
b0 T
b0 W
b1011 *
b1011 -
b1011 7
b1011 L
b1100000001100100 J
b1100000001100100 Y
1E
1;
05
11
12
b0 ?
b10 @
b1 M
b1 X
1!
#3300
0!
#3350
b1100000001100101 H
b1100000001100101 R
b1 P
b1 \
b1100000001100101 O
b1100000001100101 ^
b1100000001100100 Q
b1100000001100100 [
b1100000001100101 J
b1100000001100101 Y
0;
01
18
b1 :
b1 =
b1 A
b1 ?
b0 @
b1 '
b1 +
b1 .
b1 D
b1 T
b1 W
b1100100 *
b1100100 -
b1100100 7
b1100100 L
b0 &
b1101110 $
b0 M
b0 X
b1100000001100100 I
b1100000001100100 Z
1!
